Lorem ipsum dolor sit amet
…
year= data%>%
  group_by(original_publication_date)%>%
  summarize(Counts=n())

year

## # A tibble: 48 x 2
##    original_publication_date Counts
##  *                     <dbl>  <int>
##  1                      -350  38366
##  2                      -320  48779
##  3                       125    323
##  4                       170   2212
##  5                      1637    340
##  6                      1641    792
##  7                      1674  12997
##  8                      1677   3793
##  9                      1689   8885
## 10                      1710   6067
## # ... with 38 more rows
…
